analysis.knit
…
top_words_by_class <- word_frequency %>%
  group_by(class) %>%
  slice_max(n, n = 20, with_ties = FALSE) %>%
  ungroup()

top_words_by_class

## # A tibble: 40 × 3
##    class                 word           n
##    <chr>                 <chr>      <int>
##  1 ADHD comparison posts feel       16939
##  2 ADHD comparison posts time       15415
##  3 ADHD comparison posts day         9536
##  4 ADHD comparison posts people      8957
##  5 ADHD comparison posts life        8620
##  6 ADHD comparison posts meds        7208
##  7 ADHD comparison posts medication  7105
##  8 ADHD comparison posts diagnosed   6514
##  9 ADHD comparison posts lot         5788
## 10 ADHD comparison posts school      5781
## # ℹ 30 more rows
…
# Create a presentation-safe version.
# Minimum count thresholds reduce the influence of rare or unclear terms.
tfidf_words_safe <- tfidf_by_class %>%
  filter(total_count >= 100) %>%
  filter(doc_count >= 20) %>%
  filter(!word %in% sensitive_display_terms)

top_tfidf_words_safe <- tfidf_words_safe %>%
  group_by(class) %>%
  slice_max(mean_tfidf, n = 20, with_ties = FALSE) %>%
  ungroup()

top_tfidf_words_safe

## # A tibble: 40 × 5
##    class                 word       total_count doc_count mean_tfidf
##    <chr>                 <chr>            <int>     <int>      <dbl>
##  1 ADHD comparison posts kaiser             109        47      0.320
##  2 ADHD comparison posts tics               109        59      0.271
##  3 ADHD comparison posts focalin            173       103      0.239
##  4 ADHD comparison posts guanfacine         105        68      0.226
##  5 ADHD comparison posts blah               105        44      0.215
##  6 ADHD comparison posts cerebral           104        66      0.208
##  7 ADHD comparison posts straterra          149        92      0.205
##  8 ADHD comparison posts thread             152       139      0.203
##  9 ADHD comparison posts dexedrine          201       114      0.199
## 10 ADHD comparison posts coach              135        90      0.195
## # ℹ 30 more rows
…
